{
	"process_id" : 51748,
	"version" : "2019.2.19f1",
	"app_path" : "/Applications/Unity/Hub/Editor/2019.2.19f1/Unity.app",
	"app_contents_path" : "/Applications/Unity/Hub/Editor/2019.2.19f1/Unity.app/Contents"
}